{
	"info": {
		"_postman_id": "b4e050e6-0313-42d2-ba76-ca52745d3c5a",
		"name": "Salus II",
		"schema": "https://schema.getpostman.com/json/collection/v2.1.0/collection.json",
		"_exporter_id": "596888"
	},
	"item": [
		{
			"name": "FindAll",
			"request": {
				"method": "GET",
				"header": [],
				"url": {
					"raw": "localhost:8080/api/sede",
					"host": [
						"localhost"
					],
					"port": "8080",
					"path": [
						"api",
						"sede"
					]
				}
			},
			"response": []
		},
		{
			"name": "FindOne",
			"request": {
				"method": "GET",
				"header": [],
				"url": {
					"raw": "localhost:8080/api/sede/:id",
					"host": [
						"localhost"
					],
					"port": "8080",
					"path": [
						"api",
						"sede",
						":id"
					],
					"variable": [
						{
							"key": "id",
							"value": "1"
						}
					]
				}
			},
			"response": []
		},
		{
			"name": "Create",
			"request": {
				"method": "POST",
				"header": [],
				"body": {
					"mode": "raw",
					"raw": "{\n    \"denominazione\": \"Sede 1\",\n    \"citta\": \"Roma\"\n}",
					"options": {
						"raw": {
							"language": "json"
						}
					}
				},
				"url": {
					"raw": "localhost:8080/api/sede",
					"host": [
						"localhost"
					],
					"port": "8080",
					"path": [
						"api",
						"sede"
					]
				}
			},
			"response": []
		},
		{
			"name": "Update",
			"request": {
				"method": "PUT",
				"header": [],
				"body": {
					"mode": "raw",
					"raw": "{\n    \"id\": 1,\n    \"denominazione\": \"Sede 11\",\n    \"citta\": \"Napoli\",\n    \"via\": \"Via Roma, 1\"\n}",
					"options": {
						"raw": {
							"language": "json"
						}
					}
				},
				"url": {
					"raw": "localhost:8080/api/sede/:id",
					"host": [
						"localhost"
					],
					"port": "8080",
					"path": [
						"api",
						"sede",
						":id"
					],
					"variable": [
						{
							"key": "id",
							"value": "1"
						}
					]
				}
			},
			"response": []
		},
		{
			"name": "Delete",
			"request": {
				"method": "DELETE",
				"header": [],
				"url": {
					"raw": "localhost:8080/api/sede/:id",
					"host": [
						"localhost"
					],
					"port": "8080",
					"path": [
						"api",
						"sede",
						":id"
					],
					"variable": [
						{
							"key": "id",
							"value": "1"
						}
					]
				}
			},
			"response": []
		}
	]
}